Figure 2
…
Step 4: Summarize the average lesion area

We can summarize the average area per DAI and Treatment, which will allow us to plot the data in the manner of Morini et al. 2017.

> avgs <- percents %>%
+   group_by(DAI, Treatment) %>%
+   summarize(meanArea = mean(Area, na.rm = TRUE)) %>%
+   ungroup()
> avgs

# A tibble: 24 x 3
     DAI Treatment      meanArea
   <int> <fct>             <dbl>
 1     1 control          100.  
 2     1 2.53 mm water     71.9 
 3     1 5.07 mm water     48.5 
 4     1 10.13 mm water    64.0 
 5     3 control          100.  
 6     3 2.53 mm water     48.7 
 7     3 5.07 mm water     80.4 
 8     3 10.13 mm water    55.0 
 9     5 control          100.  
10     5 2.53 mm water      7.55
# ... with 14 more rows
…
